{
  "kind": "collectionType",
  "collectionName": "types",
  "info": {
    "singularName": "type",
    "pluralName": "types",
    "displayName": "Type",
    "description": ""
  },
  "options": {
    "draftAndPublish": false
  },
  "pluginOptions": {},
  "attributes": {
    "name": {
      "type": "string"
    },
    "svgIcon": {
      "type": "media",
      "multiple": false,
      "required": true,
      "allowedTypes": [
        "images"
      ]
    },
    "superType": {
      "type": "relation",
      "relation": "manyToOne",
      "target": "api::super-type.super-type",
      "inversedBy": "types"
    },
    "categories": {
      "type": "relation",
      "relation": "oneToMany",
      "target": "api::category.category",
      "mappedBy": "type"
    }
  }
}
